<?xml version="1.0"?>
<robot name="robot_scara">
	
	<link name="base_link">
		<visual>
			<geometry>
				<cylinder length="0.3" radius="0.1"/>
			</geometry>
		</visual>
	</link>
	<joint name="robot_scara_joint_1" type="continuous">
		<parent link="base_link"/>
		<child link="barra_1"/>
	</joint>
	<link name="barra_1">
		<visual>
			<geometry>
				 <box size="0.2 0.05 0.05"/>
			</geometry>
		</visual>
	</link>
	<joint name="robot_scara_joint_2" type="continuous">
		<parent link="barra_1"/>
		<child link="barra_2"/>
	</joint>
	<link name="barra_2">
		<visual>
			<geometry>
				 <box size="0.2 0.05 0.05"/>
			</geometry>
		</visual>
	</link>
</robot>

