<?xml version="1.0"?>
<robot name="robot_scara">
	<material name="blue">
		<color rgba="0 0 0.8 1"/>
	</material>
	<material name="red">
		<color rgba="0.8 0 0 1"/>
	</material>
	<material name="green">
		<color rgba="0 0.8 0 1"/>
	</material>
	<material name="white">
		<color rgba="1 1 1 1"/>
	</material>
	<material name="black">
		<color rgba="0 0 0 1"/>
	</material>
	<link name="base_link">
		<visual>
			<origin xyz="0.0 0 0.15" rpy="0 0 0" />
			<geometry>
				<cylinder length="0.3" radius="0.1"/>
			</geometry>
			<material name="black"/>		
		</visual>
	</link>
	<joint name="robot_scara_joint_1" type="continuous">
		<origin xyz="0.0 0 0.3" rpy="0 0 0" />
		<parent link="base_link"/>
		<child link="barra_1"/>
	</joint>
	<link name="barra_1">		
		<visual>
			<origin xyz="0.1 0 0.0" rpy="0 0 0" />
			<geometry>
				 <box size="0.2 0.05 0.05"/>
			</geometry>
			<material name="blue"/>		
		</visual>
	</link>
	<joint name="robot_scara_joint_2" type="continuous">
        <origin xyz="0.2 0 0" rpy="0 0 0"/>
		<parent link="barra_1"/>
		<child link="barra_2"/>
	</joint>
	<link name="barra_2">
		<visual>
			<origin xyz="0.1 0 0.0" rpy="0 0 0" />
			<geometry>
				 <box size="0.2 0.05 0.05"/>
			</geometry>
			<material name="red"/>			
		</visual>
	</link>
</robot>

